{
  "sections": {
    "image_banner": {
      "type": "image-banner",
      "blocks": {
        "heading": {
          "type": "heading",
          "settings": {
            "heading": "Pandoo Clothing Corp",
            "heading_size": "h0"
          }
        },
        "text": {
          "type": "text",
          "settings": {
            "text": "Where all pandas meet.",
            "text_style": "body"
          }
        },
        "button": {
          "type": "buttons",
          "settings": {
            "button_label_1": "Shop all",
            "button_link_1": "shopify:\/\/collections\/all",
            "button_style_secondary_1": false,
            "button_label_2": "",
            "button_link_2": "",
            "button_style_secondary_2": false
          }
        }
      },
      "block_order": [
        "heading",
        "text",
        "button"
      ],
      "custom_css": [

      ],
      "settings": {
        "image": "shopify:\/\/shop_images\/panda2.jpg",
        "image_overlay_opacity": 40,
        "image_height": "large",
        "adapt_height_first_image": false,
        "desktop_content_position": "bottom-center",
        "show_text_box": false,
        "desktop_content_alignment": "center",
        "color_scheme": "background-1",
        "mobile_content_alignment": "center",
        "stack_images_on_mobile": false,
        "show_text_below": false
      }
    },
    "rich_text": {
      "type": "rich-text",
      "blocks": {
        "heading": {
          "type": "heading",
          "settings": {
            "heading": "<p>The most amazing brand you've ever seen!<\/p>",
            "heading_size": "h1"
          }
        },
        "text": {
          "type": "text",
          "settings": {
            "text": "<p>Who doesn't like pandas?!?<\/p>"
          }
        }
      },
      "block_order": [
        "heading",
        "text"
      ],
      "settings": {
        "desktop_content_position": "center",
        "content_alignment": "center",
        "color_scheme": "background-1",
        "full_width": true,
        "padding_top": 40,
        "padding_bottom": 0
      }
    },
    "featured_collection": {
      "type": "featured-collection",
      "settings": {
        "title": "Bestellers",
        "heading_size": "h2",
        "description": "",
        "show_description": false,
        "description_style": "body",
        "collection": "bestsellers",
        "products_to_show": 6,
        "columns_desktop": 3,
        "full_width": true,
        "show_view_all": true,
        "view_all_style": "solid",
        "enable_desktop_slider": true,
        "color_scheme": "background-1",
        "image_ratio": "adapt",
        "show_secondary_image": true,
        "show_vendor": true,
        "show_rating": false,
        "enable_quick_add": true,
        "columns_mobile": "2",
        "swipe_on_mobile": false,
        "padding_top": 28,
        "padding_bottom": 36
      }
    },
    "collage": {
      "type": "collage",
      "blocks": {
        "collection-0": {
          "type": "collection",
          "settings": {
            "collection": "pandoo-brand"
          }
        },
        "product": {
          "type": "product",
          "settings": {
            "product": "pandoo-oversized-t-shirt",
            "second_image": false
          }
        },
        "827d6cdb-df3d-42b1-8d3e-cff935394653": {
          "type": "product",
          "settings": {
            "product": "pandoo-comfy-hoodie",
            "second_image": false
          }
        }
      },
      "block_order": [
        "collection-0",
        "product",
        "827d6cdb-df3d-42b1-8d3e-cff935394653"
      ],
      "settings": {
        "heading": "Our brand",
        "heading_size": "h2",
        "desktop_layout": "left",
        "mobile_layout": "collage",
        "card_styles": "product-card-wrapper",
        "color_scheme": "background-1",
        "padding_top": 36,
        "padding_bottom": 36
      }
    },
    "multicolumn": {
      "type": "multicolumn",
      "blocks": {
        "column1": {
          "type": "column",
          "settings": {
            "image": "shopify:\/\/shop_images\/world_1.png",
            "title": "Card Title",
            "subtitle": "Card Subtitle",
            "text": "<p>You don't frighten us, English pig dogs. Go and boil your bottoms, you sons of a silly person. I blow my nose at you, so-called \"Arthur King,\" you and all your silly English K-nig-hts. Oh, oh, I see! Running away, eh? You yellow bastards! Come back here and take what's coming to you! I'll bite your legs off! Oh, king eh? Very nice. And how'd you get that, eh? By exploiting the workers.<\/p>",
            "link_label": "",
            "link": ""
          }
        },
        "column2": {
          "type": "column",
          "settings": {
            "image": "shopify:\/\/shop_images\/solar_1.png",
            "title": "Card Title",
            "subtitle": "Card Subtitle",
            "text": "<p>You don't frighten us, English pig dogs. Go and boil your bottoms, you sons of a silly person. I blow my nose at you, so-called \"Arthur King,\" you and all your silly English K-nig-hts. Oh, oh, I see! Running away, eh? You yellow bastards! Come back here and take what's coming to you! I'll bite your legs off! Oh, king eh? Very nice. And how'd you get that, eh? By exploiting the workers.<\/p>",
            "link_label": "",
            "link": ""
          }
        },
        "column3": {
          "type": "column",
          "settings": {
            "image": "shopify:\/\/shop_images\/wind_1.png",
            "title": "Card Title",
            "subtitle": "Card Subtitle",
            "text": "<p>You don't frighten us, English pig dogs. Go and boil your bottoms, you sons of a silly person. I blow my nose at you, so-called \"Arthur King,\" you and all your silly English K-nig-hts. Oh, oh, I see! Running away, eh? You yellow bastards! Come back here and take what's coming to you! I'll bite your legs off! Oh, king eh? Very nice. And how'd you get that, eh? By exploiting the workers.<\/p>",
            "link_label": "",
            "link": ""
          }
        }
      },
      "block_order": [
        "column1",
        "column2",
        "column3"
      ],
      "settings": {
        "title": "",
        "heading_size": "h1",
        "image_width": "third",
        "image_ratio": "adapt",
        "columns_desktop": 3,
        "column_alignment": "center",
        "background_style": "none",
        "button_label": "",
        "button_link": "",
        "color_scheme": "background-1",
        "columns_mobile": "1",
        "swipe_on_mobile": false,
        "padding_top": 36,
        "padding_bottom": 36
      }
    }
  },
  "order": [
    "image_banner",
    "rich_text",
    "featured_collection",
    "collage",
    "multicolumn"
  ]
}